{
  "linhasCredito": [
  
      {
        "id": 219,
        "nome": "BB FCO RURAL DESENVOLVIMENTO RURAL",
        "taxa": {
            "valorMaximo": 6.910,
            "valorMinimo": 5.360,
            "nome": "ao ano civil"
        },
        "percentualMinimo": 1.000,
        "percentualMaximo": 100.000,
        "valorMaximo": 100000000.00,
        "valorMinimo": 0.00,
        "condicoesNegociais": [
          
          {
            "tipoTaxa": {
              "id": 1,
              "nome": "PREFIXADO"
            },
            "formaExigibilidade": {
              "id": 4,
              "nome": "PARCELAS IGUAIS"
            },
            "periodicidade": {
              "id": 5,
              "nome": "ANUAL"
            },
            "cronograma": {
              "sistema": {
                "id": 1,
                "nome": "SAC"
              },
              "diaBaseMaximo": 1,
              "diaBaseMinimo": 1,
              "dataMaximaPrimeiraParcela": "01.08.2027",
              "dataMinimaPrimeiraParcela": "01.09.2021",
              "indicadorFinanciamentoDespesa": "N",
              "indicadorFinanciamentoIOF": "N",
              "quantidadeMaximaParcelas": 15,
              "quantidadeMinimaParcelas": 1,
              "quantidadeDiasMaximo": 5479,
              "indicadorCobrancaEncargoCarencia": "N"
            }
          }
          ,
          
          {
            "tipoTaxa": {
              "id": 1,
              "nome": "PREFIXADO"
            },
            "formaExigibilidade": {
              "id": 4,
              "nome": "PARCELAS IGUAIS"
            },
            "periodicidade": {
              "id": 4,
              "nome": "SEMESTRAL"
            },
            "cronograma": {
              "sistema": {
                "id": 1,
                "nome": "SAC"
              },
              "diaBaseMaximo": 1,
              "diaBaseMinimo": 1,
              "dataMaximaPrimeiraParcela": "01.02.2027",
              "dataMinimaPrimeiraParcela": "01.09.2021",
              "indicadorFinanciamentoDespesa": "N",
              "indicadorFinanciamentoIOF": "N",
              "quantidadeMaximaParcelas": 30,
              "quantidadeMinimaParcelas": 1,
              "quantidadeDiasMaximo": 5479,
              "indicadorCobrancaEncargoCarencia": "N"
            }
          }
          ,
          
          {
            "tipoTaxa": {
              "id": 0,
              "nome": ""
            },
            "formaExigibilidade": {
              "id": 0,
              "nome": ""
            },
            "periodicidade": {
              "id": 0,
              "nome": ""
            },
            "cronograma": {
              "sistema": {
                "id": 0,
                "nome": ""
              },
              "diaBaseMaximo": 0,
              "diaBaseMinimo": 0,
              "dataMaximaPrimeiraParcela": "",
              "dataMinimaPrimeiraParcela": "",
              "indicadorFinanciamentoDespesa": "",
              "indicadorFinanciamentoIOF": "",
              "quantidadeMaximaParcelas": 0,
              "quantidadeMinimaParcelas": 0,
              "quantidadeDiasMaximo": 0,
              "indicadorCobrancaEncargoCarencia": ""
            }
          }
          ,
          
          {
            "tipoTaxa": {
              "id": 0,
              "nome": ""
            },
            "formaExigibilidade": {
              "id": 0,
              "nome": ""
            },
            "periodicidade": {
              "id": 0,
              "nome": ""
            },
            "cronograma": {
              "sistema": {
                "id": 0,
                "nome": ""
              },
              "diaBaseMaximo": 0,
              "diaBaseMinimo": 0,
              "dataMaximaPrimeiraParcela": "",
              "dataMinimaPrimeiraParcela": "",
              "indicadorFinanciamentoDespesa": "",
              "indicadorFinanciamentoIOF": "",
              "quantidadeMaximaParcelas": 0,
              "quantidadeMinimaParcelas": 0,
              "quantidadeDiasMaximo": 0,
              "indicadorCobrancaEncargoCarencia": ""
            }
          }
          ,
          
          {
            "tipoTaxa": {
              "id": 0,
              "nome": ""
            },
            "formaExigibilidade": {
              "id": 0,
              "nome": ""
            },
            "periodicidade": {
              "id": 0,
              "nome": ""
            },
            "cronograma": {
              "sistema": {
                "id": 0,
                "nome": ""
              },
              "diaBaseMaximo": 0,
              "diaBaseMinimo": 0,
              "dataMaximaPrimeiraParcela": "",
              "dataMinimaPrimeiraParcela": "",
              "indicadorFinanciamentoDespesa": "",
              "indicadorFinanciamentoIOF": "",
              "quantidadeMaximaParcelas": 0,
              "quantidadeMinimaParcelas": 0,
              "quantidadeDiasMaximo": 0,
              "indicadorCobrancaEncargoCarencia": ""
            }
          }
          ,
          
          {
            "tipoTaxa": {
              "id": 0,
              "nome": ""
            },
            "formaExigibilidade": {
              "id": 0,
              "nome": ""
            },
            "periodicidade": {
              "id": 0,
              "nome": ""
            },
            "cronograma": {
              "sistema": {
                "id": 0,
                "nome": ""
              },
              "diaBaseMaximo": 0,
              "diaBaseMinimo": 0,
              "dataMaximaPrimeiraParcela": "",
              "dataMinimaPrimeiraParcela": "",
              "indicadorFinanciamentoDespesa": "",
              "indicadorFinanciamentoIOF": "",
              "quantidadeMaximaParcelas": 0,
              "quantidadeMinimaParcelas": 0,
              "quantidadeDiasMaximo": 0,
              "indicadorCobrancaEncargoCarencia": ""
            }
          }
          ,
          
          {
            "tipoTaxa": {
              "id": 0,
              "nome": ""
            },
            "formaExigibilidade": {
              "id": 0,
              "nome": ""
            },
            "periodicidade": {
              "id": 0,
              "nome": ""
            },
            "cronograma": {
              "sistema": {
                "id": 0,
                "nome": ""
              },
              "diaBaseMaximo": 0,
              "diaBaseMinimo": 0,
              "dataMaximaPrimeiraParcela": "",
              "dataMinimaPrimeiraParcela": "",
              "indicadorFinanciamentoDespesa": "",
              "indicadorFinanciamentoIOF": "",
              "quantidadeMaximaParcelas": 0,
              "quantidadeMinimaParcelas": 0,
              "quantidadeDiasMaximo": 0,
              "indicadorCobrancaEncargoCarencia": ""
            }
          }
          ,
          
          {
            "tipoTaxa": {
              "id": 0,
              "nome": ""
            },
            "formaExigibilidade": {
              "id": 0,
              "nome": ""
            },
            "periodicidade": {
              "id": 0,
              "nome": ""
            },
            "cronograma": {
              "sistema": {
                "id": 0,
                "nome": ""
              },
              "diaBaseMaximo": 0,
              "diaBaseMinimo": 0,
              "dataMaximaPrimeiraParcela": "",
              "dataMinimaPrimeiraParcela": "",
              "indicadorFinanciamentoDespesa": "",
              "indicadorFinanciamentoIOF": "",
              "quantidadeMaximaParcelas": 0,
              "quantidadeMinimaParcelas": 0,
              "quantidadeDiasMaximo": 0,
              "indicadorCobrancaEncargoCarencia": ""
            }
          }
          ,
          
          {
            "tipoTaxa": {
              "id": 0,
              "nome": ""
            },
            "formaExigibilidade": {
              "id": 0,
              "nome": ""
            },
            "periodicidade": {
              "id": 0,
              "nome": ""
            },
            "cronograma": {
              "sistema": {
                "id": 0,
                "nome": ""
              },
              "diaBaseMaximo": 0,
              "diaBaseMinimo": 0,
              "dataMaximaPrimeiraParcela": "",
              "dataMinimaPrimeiraParcela": "",
              "indicadorFinanciamentoDespesa": "",
              "indicadorFinanciamentoIOF": "",
              "quantidadeMaximaParcelas": 0,
              "quantidadeMinimaParcelas": 0,
              "quantidadeDiasMaximo": 0,
              "indicadorCobrancaEncargoCarencia": ""
            }
          }
          ,
          
          {
            "tipoTaxa": {
              "id": 0,
              "nome": ""
            },
            "formaExigibilidade": {
              "id": 0,
              "nome": ""
            },
            "periodicidade": {
              "id": 0,
              "nome": ""
            },
            "cronograma": {
              "sistema": {
                "id": 0,
                "nome": ""
              },
              "diaBaseMaximo": 0,
              "diaBaseMinimo": 0,
              "dataMaximaPrimeiraParcela": "",
              "dataMinimaPrimeiraParcela": "",
              "indicadorFinanciamentoDespesa": "",
              "indicadorFinanciamentoIOF": "",
              "quantidadeMaximaParcelas": 0,
              "quantidadeMinimaParcelas": 0,
              "quantidadeDiasMaximo": 0,
              "indicadorCobrancaEncargoCarencia": ""
            }
          }
          
          
        ]
      }
      ,
      
      {
        "id": 296,
        "nome": "BB INVESTE AGRO",
        "taxa": {
            "valorMaximo": 18.750,
            "valorMinimo": 8.000,
            "nome": "ao ano civil"
        },
        "percentualMinimo": 1.000,
        "percentualMaximo": 100.000,
        "valorMaximo": 999999999.00,
        "valorMinimo": 0.00,
        "condicoesNegociais": [
          
          {
            "tipoTaxa": {
              "id": 1,
              "nome": "PREFIXADO"
            },
            "formaExigibilidade": {
              "id": 4,
              "nome": "PARCELAS IGUAIS"
            },
            "periodicidade": {
              "id": 5,
              "nome": "ANUAL"
            },
            "cronograma": {
              "sistema": {
                "id": 1,
                "nome": "SAC"
              },
              "diaBaseMaximo": 28,
              "diaBaseMinimo": 1,
              "dataMaximaPrimeiraParcela": "28.08.2022",
              "dataMinimaPrimeiraParcela": "01.10.2021",
              "indicadorFinanciamentoDespesa": "N",
              "indicadorFinanciamentoIOF": "N",
              "quantidadeMaximaParcelas": 6,
              "quantidadeMinimaParcelas": 1,
              "quantidadeDiasMaximo": 2192,
              "indicadorCobrancaEncargoCarencia": "N"
            }
          }
          ,
          
          {
            "tipoTaxa": {
              "id": 1,
              "nome": "PREFIXADO"
            },
            "formaExigibilidade": {
              "id": 4,
              "nome": "PARCELAS IGUAIS"
            },
            "periodicidade": {
              "id": 4,
              "nome": "SEMESTRAL"
            },
            "cronograma": {
              "sistema": {
                "id": 1,
                "nome": "SAC"
              },
              "diaBaseMaximo": 28,
              "diaBaseMinimo": 1,
              "dataMaximaPrimeiraParcela": "28.02.2022",
              "dataMinimaPrimeiraParcela": "01.10.2021",
              "indicadorFinanciamentoDespesa": "N",
              "indicadorFinanciamentoIOF": "N",
              "quantidadeMaximaParcelas": 12,
              "quantidadeMinimaParcelas": 1,
              "quantidadeDiasMaximo": 2192,
              "indicadorCobrancaEncargoCarencia": "N"
            }
          }
          ,
          
          {
            "tipoTaxa": {
              "id": 0,
              "nome": ""
            },
            "formaExigibilidade": {
              "id": 0,
              "nome": ""
            },
            "periodicidade": {
              "id": 0,
              "nome": ""
            },
            "cronograma": {
              "sistema": {
                "id": 0,
                "nome": ""
              },
              "diaBaseMaximo": 0,
              "diaBaseMinimo": 0,
              "dataMaximaPrimeiraParcela": "",
              "dataMinimaPrimeiraParcela": "",
              "indicadorFinanciamentoDespesa": "",
              "indicadorFinanciamentoIOF": "",
              "quantidadeMaximaParcelas": 0,
              "quantidadeMinimaParcelas": 0,
              "quantidadeDiasMaximo": 0,
              "indicadorCobrancaEncargoCarencia": ""
            }
          }
          ,
          
          {
            "tipoTaxa": {
              "id": 0,
              "nome": ""
            },
            "formaExigibilidade": {
              "id": 0,
              "nome": ""
            },
            "periodicidade": {
              "id": 0,
              "nome": ""
            },
            "cronograma": {
              "sistema": {
                "id": 0,
                "nome": ""
              },
              "diaBaseMaximo": 0,
              "diaBaseMinimo": 0,
              "dataMaximaPrimeiraParcela": "",
              "dataMinimaPrimeiraParcela": "",
              "indicadorFinanciamentoDespesa": "",
              "indicadorFinanciamentoIOF": "",
              "quantidadeMaximaParcelas": 0,
              "quantidadeMinimaParcelas": 0,
              "quantidadeDiasMaximo": 0,
              "indicadorCobrancaEncargoCarencia": ""
            }
          }
          ,
          
          {
            "tipoTaxa": {
              "id": 0,
              "nome": ""
            },
            "formaExigibilidade": {
              "id": 0,
              "nome": ""
            },
            "periodicidade": {
              "id": 0,
              "nome": ""
            },
            "cronograma": {
              "sistema": {
                "id": 0,
                "nome": ""
              },
              "diaBaseMaximo": 0,
              "diaBaseMinimo": 0,
              "dataMaximaPrimeiraParcela": "",
              "dataMinimaPrimeiraParcela": "",
              "indicadorFinanciamentoDespesa": "",
              "indicadorFinanciamentoIOF": "",
              "quantidadeMaximaParcelas": 0,
              "quantidadeMinimaParcelas": 0,
              "quantidadeDiasMaximo": 0,
              "indicadorCobrancaEncargoCarencia": ""
            }
          }
          ,
          
          {
            "tipoTaxa": {
              "id": 0,
              "nome": ""
            },
            "formaExigibilidade": {
              "id": 0,
              "nome": ""
            },
            "periodicidade": {
              "id": 0,
              "nome": ""
            },
            "cronograma": {
              "sistema": {
                "id": 0,
                "nome": ""
              },
              "diaBaseMaximo": 0,
              "diaBaseMinimo": 0,
              "dataMaximaPrimeiraParcela": "",
              "dataMinimaPrimeiraParcela": "",
              "indicadorFinanciamentoDespesa": "",
              "indicadorFinanciamentoIOF": "",
              "quantidadeMaximaParcelas": 0,
              "quantidadeMinimaParcelas": 0,
              "quantidadeDiasMaximo": 0,
              "indicadorCobrancaEncargoCarencia": ""
            }
          }
          ,
          
          {
            "tipoTaxa": {
              "id": 0,
              "nome": ""
            },
            "formaExigibilidade": {
              "id": 0,
              "nome": ""
            },
            "periodicidade": {
              "id": 0,
              "nome": ""
            },
            "cronograma": {
              "sistema": {
                "id": 0,
                "nome": ""
              },
              "diaBaseMaximo": 0,
              "diaBaseMinimo": 0,
              "dataMaximaPrimeiraParcela": "",
              "dataMinimaPrimeiraParcela": "",
              "indicadorFinanciamentoDespesa": "",
              "indicadorFinanciamentoIOF": "",
              "quantidadeMaximaParcelas": 0,
              "quantidadeMinimaParcelas": 0,
              "quantidadeDiasMaximo": 0,
              "indicadorCobrancaEncargoCarencia": ""
            }
          }
          ,
          
          {
            "tipoTaxa": {
              "id": 0,
              "nome": ""
            },
            "formaExigibilidade": {
              "id": 0,
              "nome": ""
            },
            "periodicidade": {
              "id": 0,
              "nome": ""
            },
            "cronograma": {
              "sistema": {
                "id": 0,
                "nome": ""
              },
              "diaBaseMaximo": 0,
              "diaBaseMinimo": 0,
              "dataMaximaPrimeiraParcela": "",
              "dataMinimaPrimeiraParcela": "",
              "indicadorFinanciamentoDespesa": "",
              "indicadorFinanciamentoIOF": "",
              "quantidadeMaximaParcelas": 0,
              "quantidadeMinimaParcelas": 0,
              "quantidadeDiasMaximo": 0,
              "indicadorCobrancaEncargoCarencia": ""
            }
          }
          ,
          
          {
            "tipoTaxa": {
              "id": 0,
              "nome": ""
            },
            "formaExigibilidade": {
              "id": 0,
              "nome": ""
            },
            "periodicidade": {
              "id": 0,
              "nome": ""
            },
            "cronograma": {
              "sistema": {
                "id": 0,
                "nome": ""
              },
              "diaBaseMaximo": 0,
              "diaBaseMinimo": 0,
              "dataMaximaPrimeiraParcela": "",
              "dataMinimaPrimeiraParcela": "",
              "indicadorFinanciamentoDespesa": "",
              "indicadorFinanciamentoIOF": "",
              "quantidadeMaximaParcelas": 0,
              "quantidadeMinimaParcelas": 0,
              "quantidadeDiasMaximo": 0,
              "indicadorCobrancaEncargoCarencia": ""
            }
          }
          ,
          
          {
            "tipoTaxa": {
              "id": 0,
              "nome": ""
            },
            "formaExigibilidade": {
              "id": 0,
              "nome": ""
            },
            "periodicidade": {
              "id": 0,
              "nome": ""
            },
            "cronograma": {
              "sistema": {
                "id": 0,
                "nome": ""
              },
              "diaBaseMaximo": 0,
              "diaBaseMinimo": 0,
              "dataMaximaPrimeiraParcela": "",
              "dataMinimaPrimeiraParcela": "",
              "indicadorFinanciamentoDespesa": "",
              "indicadorFinanciamentoIOF": "",
              "quantidadeMaximaParcelas": 0,
              "quantidadeMinimaParcelas": 0,
              "quantidadeDiasMaximo": 0,
              "indicadorCobrancaEncargoCarencia": ""
            }
          }
          
          
        ]
      }
      
      
  ]
  
}